Trajectory Processing
…
Note: TO-DO … need to clean trajectories for NAs and altitude.

Apply heuristic to dataset:

flt_table <- ds %>% est_apt_flt_phase()
flt_table

## # A tibble: 2,205 x 10
## # Groups:   icao24 [1,157]
##    icao24 callsign  HITS   ONG FIRST               FIRST_ALT LAST               
##    <chr>  <chr>    <int> <int> <dttm>                  <dbl> <dttm>             
##  1 0083c3 CAI2188    250     0 2019-10-01 18:18:25     7612. 2019-10-01 18:22:34
##  2 00b0ed SAA260     158     0 2019-10-01 03:45:40    11880. 2019-10-01 03:48:17
##  3 00b0ed SAA261     341     0 2019-10-01 19:30:14     8801. 2019-10-01 19:35:54
##  4 01015e MSR777     354     0 2019-10-01 11:49:51    11826. 2019-10-01 11:55:44
##  5 0101b4 NIA519     419     1 2019-10-01 23:06:41    11742. 2019-10-01 23:13:39
##  6 0101b6 MSR779     276     0 2019-10-01 18:05:25    11201. 2019-10-01 18:10:00
##  7 0101e0 MSR800     256     0 2019-10-01 14:57:16    12146. 2019-10-01 15:01:32
##  8 02a186 TAR744     305     0 2019-10-01 10:51:50       NA  2019-10-01 10:56:54
##  9 02a186 TAR745     343     0 2019-10-01 13:44:29       NA  2019-10-01 13:50:11
## 10 02a193 TAR602    1325   215 2019-10-01 07:55:20     6340. 2019-10-01 08:17:25
## # ... with 2,195 more rows, and 3 more variables: LAST_ALT <dbl>,
## #   DUR_COV <drtn>, ALT_CHG <chr>
…
